^C:\USERS\ADMIN\SOURCE\REPOS\PROJECT2\SOURCE.CPP
C:\USERS\ADMIN\SOURCE\REPOS\PROJECT2\DEBUG\VC142.PDB
C:\USERS\ADMIN\SOURCE\REPOS\PROJECT2\DEBUG\VC142.IDB
C:\USERS\ADMIN\SOURCE\REPOS\PROJECT2\DEBUG\SOURCE.OBJ
